  0
SECTION
  2
HEADER
  9
$ACADVER
  1
AC1009
  9
$INSBASE
 10
0.0
 20
0.0
 30
0.0
  9
$EXTMIN
 10
0.0
 20
0.0
 30
0.0
  9
$EXTMAX
 10
0.0
 20
0.0
 30
0.0
  0
ENDSEC
  0
SECTION
  2
TABLES
  0
TABLE
  2
VPORT
 70
0
  0
ENDTAB
  0
TABLE
  2
LTYPE
 70
1
  0
LTYPE
  2
CONTINUOUS
 70
0
  3
Solid line
 72
65
 73
0
 40
0.0
  0
ENDTAB
  0
TABLE
  2
LAYER
 70
1
  0
LAYER
  2
0
 70
64
 62
7
  6
continuous
  0
ENDTAB
  0
TABLE
  2
STYLE
 70
1
  0
STYLE
  2
STANDARD
 70
0
 40
0
 41
1.0
 50
0.0
 71
0
 42
1
 3
ARIAL.TTF
 4

  0
ENDTAB
  0
TABLE
  2
VIEW
 70
0
  0
ENDTAB
  0
ENDSEC
  0
SECTION
  2
BLOCKS
  0
BLOCK
  8
0
  2
PART__MIRRORING
 70
0
 10
0.0
 20
0.0
 30
0.0
  3
PART__MIRRORING
  0
LINE
  8
0
 62
0
 10
712.496400292
 20
0.0
 30
0.0
 11
712.496400292
 21
-5.34020192025
 31
0.0
  0
LINE
  8
0
 62
0
 10
788.696400292
 20
0.0
 30
0.0
 11
788.696400292
 21
-50.8
 31
0.0
  0
LINE
  8
0
 62
0
 10
712.496400292
 20
-50.8
 30
0.0
 11
788.696400292
 21
-50.8
 31
0.0
  0
LINE
  8
0
 62
0
 10
712.496400292
 20
-45.4597980797
 30
0.0
 11
712.496400292
 21
-50.8
 31
0.0
  0
POLYLINE
  8
0
 62
0
 70
0
 66
1
 10
0.0
 20
0.0
 30
0.0
  0
VERTEX
  8
0
 10
712.496400292
 20
-45.4597980797
 30
0.0
  0
VERTEX
  8
0
 10
713.483798916
 20
-45.0956952851
 30
0.0
  0
VERTEX
  8
0
 10
714.471197541
 20
-44.7315924905
 30
0.0
  0
VERTEX
  8
0
 10
715.458596166
 20
-44.3674896959
 30
0.0
  0
VERTEX
  8
0
 10
716.44599479
 20
-44.0033869012
 30
0.0
  0
VERTEX
  8
0
 10
717.348834596
 20
-43.5027849154
 30
0.0
  0
VERTEX
  8
0
 10
718.245169876
 20
-42.9916829918
 30
0.0
  0
VERTEX
  8
0
 10
719.141505157
 20
-42.4805810682
 30
0.0
  0
VERTEX
  8
0
 10
720.037840438
 20
-41.9694791446
 30
0.0
  0
VERTEX
  8
0
 10
720.831369964
 20
-41.3464915692
 30
0.0
  0
VERTEX
  8
0
 10
721.607765197
 20
-40.7048563851
 30
0.0
  0
VERTEX
  8
0
 10
722.38416043
 20
-40.063221201
 30
0.0
  0
VERTEX
  8
0
 10
723.160555663
 20
-39.4215860169
 30
0.0
  0
VERTEX
  8
0
 10
723.823059478
 20
-38.6936306278
 30
0.0
  0
VERTEX
  8
0
 10
724.454501997
 20
-37.9421333645
 30
0.0
  0
VERTEX
  8
0
 10
725.085944517
 20
-37.1906361013
 30
0.0
  0
VERTEX
  8
0
 10
725.717387036
 20
-36.4391388381
 30
0.0
  0
VERTEX
  8
0
 10
726.230761324
 20
-35.6264619063
 30
0.0
  0
VERTEX
  8
0
 10
726.696908319
 20
-34.7893131069
 30
0.0
  0
VERTEX
  8
0
 10
727.163055314
 20
-33.9521643076
 30
0.0
  0
VERTEX
  8
0
 10
727.629202309
 20
-33.1150155083
 30
0.0
  0
VERTEX
  8
0
 10
727.979433736
 20
-32.240142818
 30
0.0
  0
VERTEX
  8
0
 10
728.265267625
 20
-31.3443124106
 30
0.0
  0
VERTEX
  8
0
 10
728.551101513
 20
-30.4484820031
 30
0.0
  0
VERTEX
  8
0
 10
728.836935402
 20
-29.5526515956
 30
0.0
  0
VERTEX
  8
0
 10
729.014471207
 20
-28.6397805198
 30
0.0
  0
VERTEX
  8
0
 10
729.110783448
 20
-27.7141289427
 30
0.0
  0
VERTEX
  8
0
 10
729.207095689
 20
-26.7884773656
 30
0.0
  0
VERTEX
  8
0
 10
729.30340793
 20
-25.8628257885
 30
0.0
  0
VERTEX
  8
0
 10
729.30340793
 20
-24.9371742115
 30
0.0
  0
VERTEX
  8
0
 10
729.207095689
 20
-24.0115226344
 30
0.0
  0
VERTEX
  8
0
 10
729.110783448
 20
-23.0858710573
 30
0.0
  0
VERTEX
  8
0
 10
729.014471207
 20
-22.1602194802
 30
0.0
  0
VERTEX
  8
0
 10
728.836935402
 20
-21.2473484044
 30
0.0
  0
VERTEX
  8
0
 10
728.551101513
 20
-20.3515179969
 30
0.0
  0
VERTEX
  8
0
 10
728.265267625
 20
-19.4556875894
 30
0.0
  0
VERTEX
  8
0
 10
727.979433736
 20
-18.559857182
 30
0.0
  0
VERTEX
  8
0
 10
727.629202309
 20
-17.6849844917
 30
0.0
  0
VERTEX
  8
0
 10
727.163055314
 20
-16.8478356924
 30
0.0
  0
VERTEX
  8
0
 10
726.696908319
 20
-16.0106868931
 30
0.0
  0
VERTEX
  8
0
 10
726.230761324
 20
-15.1735380937
 30
0.0
  0
VERTEX
  8
0
 10
725.717387036
 20
-14.3608611619
 30
0.0
  0
VERTEX
  8
0
 10
725.085944517
 20
-13.6093638987
 30
0.0
  0
VERTEX
  8
0
 10
724.454501997
 20
-12.8578666355
 30
0.0
  0
VERTEX
  8
0
 10
723.823059478
 20
-12.1063693722
 30
0.0
  0
VERTEX
  8
0
 10
723.160555663
 20
-11.3784139831
 30
0.0
  0
VERTEX
  8
0
 10
722.38416043
 20
-10.736778799
 30
0.0
  0
VERTEX
  8
0
 10
721.607765197
 20
-10.0951436149
 30
0.0
  0
VERTEX
  8
0
 10
720.831369964
 20
-9.45350843085
 30
0.0
  0
VERTEX
  8
0
 10
720.037840438
 20
-8.8305208554
 30
0.0
  0
VERTEX
  8
0
 10
719.141505157
 20
-8.31941893179
 30
0.0
  0
VERTEX
  8
0
 10
718.245169876
 20
-7.80831700818
 30
0.0
  0
VERTEX
  8
0
 10
717.348834596
 20
-7.29721508458
 30
0.0
  0
VERTEX
  8
0
 10
716.44599479
 20
-6.79661309876
 30
0.0
  0
VERTEX
  8
0
 10
715.458596166
 20
-6.43251030413
 30
0.0
  0
VERTEX
  8
0
 10
714.471197541
 20
-6.06840750951
 30
0.0
  0
VERTEX
  8
0
 10
713.483798916
 20
-5.70430471488
 30
0.0
  0
VERTEX
  8
0
 10
712.496400292
 20
-5.34020192026
 30
0.0
  0
SEQEND
  8
0
  0
LINE
  8
0
 62
0
 10
712.496400292
 20
0.0
 30
0.0
 11
788.696400292
 21
0.0
 31
0.0
  0
ENDBLK
  0
ENDSEC
  0
SECTION
  2
ENTITIES
  0
INSERT
  2
PART__MIRRORING
  8
0
 62
0
 10
0.0
 20
0.0
 30
0.0
  0
ENDSEC
  0
EOF
