  0
SECTION
  2
HEADER
  9
$ACADVER
  1
AC1009
  9
$INSBASE
 10
0.0
 20
0.0
 30
0.0
  9
$EXTMIN
 10
0.0
 20
0.0
 30
0.0
  9
$EXTMAX
 10
0.0
 20
0.0
 30
0.0
  0
ENDSEC
  0
SECTION
  2
TABLES
  0
TABLE
  2
VPORT
 70
0
  0
ENDTAB
  0
TABLE
  2
LTYPE
 70
1
  0
LTYPE
  2
CONTINUOUS
 70
0
  3
Solid line
 72
65
 73
0
 40
0.0
  0
ENDTAB
  0
TABLE
  2
LAYER
 70
1
  0
LAYER
  2
0
 70
64
 62
7
  6
continuous
  0
ENDTAB
  0
TABLE
  2
STYLE
 70
1
  0
STYLE
  2
STANDARD
 70
0
 40
0
 41
1.0
 50
0.0
 71
0
 42
1
 3
ARIAL.TTF
 4

  0
ENDTAB
  0
TABLE
  2
VIEW
 70
0
  0
ENDTAB
  0
ENDSEC
  0
SECTION
  2
BLOCKS
  0
BLOCK
  8
0
  2
LINEARPATTERN
 70
0
 10
0.0
 20
0.0
 30
0.0
  3
LINEARPATTERN
  0
LINE
  8
0
 62
0
 10
-1e-15
 20
0.0
 30
0.0
 11
-183.543694475
 21
76.5823668891
 31
0.0
  0
LINE
  8
0
 62
0
 10
61.3210244843
 20
-112.121024484
 30
0.0
 11
25.4
 21
-76.2
 31
0.0
  0
LINE
  8
0
 62
0
 10
25.4
 20
-76.2
 30
0.0
 11
-1.43529632624e-12
 21
-76.2
 31
0.0
  0
LINE
  8
0
 62
0
 10
61.3210244843
 20
-112.121024484
 30
0.0
 11
-103.2336695
 21
-112.121024484
 31
0.0
  0
LINE
  8
0
 62
0
 10
-1.434e-12
 20
-76.2
 30
0.0
 11
-1.434e-12
 21
-1.43529632624e-12
 31
0.0
  0
LINE
  8
0
 62
0
 10
-1.434e-12
 20
-1.434e-12
 30
0.0
 11
-183.543694475
 21
76.5823668891
 31
0.0
  0
ARC
  8
0
 62
0
 10
-200.66
 20
35.56
 30
0.0
 40
44.45
 50
67.3519921641
 51
-132.035953234
  0
LINE
  8
0
 62
0
 10
-230.423577746
 20
2.54588272012
 30
0.0
 11
-103.2336695
 21
-112.121024484
 31
0.0
  0
CIRCLE
  8
0
 62
0
 10
-200.66
 20
35.56
 30
0.0
 40
19.812
  0
ENDBLK
  0
ENDSEC
  0
SECTION
  2
ENTITIES
  0
INSERT
  2
LINEARPATTERN
  8
0
 62
0
 10
0.0
 20
0.0
 30
0.0
  0
ENDSEC
  0
EOF
